%YAML 1.1
%TAG !u! tag:unity3d.com,2011:
--- !u!29 &1
SceneSettings:
  m_ObjectHideFlags: 0
  m_PVSData: 
  m_QueryMode: 1
  m_PVSObjectsArray: []
  m_PVSPortalsArray: []
  m_OcclusionBakeSettings:
    viewCellSize: 1
    bakeMode: 2
    memoryUsage: 10485760
--- !u!104 &2
RenderSettings:
  m_Fog: 0
  m_FogColor: {r: .5, g: .5, b: .5, a: 1}
  m_FogMode: 3
  m_FogDensity: .00999999978
  m_LinearFogStart: 0
  m_LinearFogEnd: 300
  m_AmbientLight: {r: .200000003, g: .200000003, b: .200000003, a: 1}
  m_SkyboxMaterial: {fileID: 0}
  m_HaloStrength: .5
  m_FlareStrength: 1
  m_HaloTexture: {fileID: 0}
  m_SpotCookie: {fileID: 0}
  m_ObjectHideFlags: 0
--- !u!127 &3
LevelGameManager:
  m_ObjectHideFlags: 0
--- !u!157 &4
LightmapSettings:
  m_ObjectHideFlags: 0
  m_LightProbes: {fileID: 0}
  m_Lightmaps: []
  m_LightmapsMode: 1
  m_BakedColorSpace: 0
  m_UseDualLightmapsInForward: 0
  m_LightmapEditorSettings:
    m_Resolution: 50
    m_LastUsedResolution: 0
    m_TextureWidth: 1024
    m_TextureHeight: 1024
    m_BounceBoost: 1
    m_BounceIntensity: 1
    m_SkyLightColor: {r: .860000014, g: .930000007, b: 1, a: 1}
    m_SkyLightIntensity: 0
    m_Quality: 0
    m_Bounces: 1
    m_FinalGatherRays: 1000
    m_FinalGatherContrastThreshold: .0500000007
    m_FinalGatherGradientThreshold: 0
    m_FinalGatherInterpolationPoints: 15
    m_AOAmount: 0
    m_AOMaxDistance: .100000001
    m_AOContrast: 1
    m_LODSurfaceMappingDistance: 1
    m_Padding: 0
    m_TextureCompression: 0
    m_LockAtlas: 0
--- !u!196 &5
NavMeshSettings:
  m_ObjectHideFlags: 0
  m_BuildSettings:
    agentRadius: .5
    agentHeight: 2
    agentSlope: 45
    agentClimb: .400000006
    ledgeDropHeight: 0
    maxJumpAcrossDistance: 0
    accuratePlacement: 0
    minRegionArea: 2
    widthInaccuracy: 16.666666
    heightInaccuracy: 10
  m_NavMesh: {fileID: 0}
--- !u!1001 &182440751
Prefab:
  m_ObjectHideFlags: 0
  serializedVersion: 2
  m_Modification:
    m_TransformParent: {fileID: 1065089102}
    m_Modifications:
    - target: {fileID: 400000, guid: 850abc942d39046f7bde0fc89b970c15, type: 2}
      propertyPath: m_LocalPosition.x
      value: 100
      objectReference: {fileID: 0}
    - target: {fileID: 400000, guid: 850abc942d39046f7bde0fc89b970c15, type: 2}
      propertyPath: m_LocalPosition.y
      value: 0
      objectReference: {fileID: 0}
    - target: {fileID: 400000, guid: 850abc942d39046f7bde0fc89b970c15, type: 2}
      propertyPath: m_LocalPosition.z
      value: 0
      objectReference: {fileID: 0}
    - target: {fileID: 400000, guid: 850abc942d39046f7bde0fc89b970c15, type: 2}
      propertyPath: m_LocalRotation.x
      value: 0
      objectReference: {fileID: 0}
    - target: {fileID: 400000, guid: 850abc942d39046f7bde0fc89b970c15, type: 2}
      propertyPath: m_LocalRotation.y
      value: 0
      objectReference: {fileID: 0}
    - target: {fileID: 400000, guid: 850abc942d39046f7bde0fc89b970c15, type: 2}
      propertyPath: m_LocalRotation.z
      value: 0
      objectReference: {fileID: 0}
    - target: {fileID: 400000, guid: 850abc942d39046f7bde0fc89b970c15, type: 2}
      propertyPath: m_LocalRotation.w
      value: 1
      objectReference: {fileID: 0}
    m_RemovedComponents: []
  m_ParentPrefab: {fileID: 100100000, guid: 850abc942d39046f7bde0fc89b970c15, type: 2}
  m_RootGameObject: {fileID: 2013626790}
  m_IsPrefabParent: 0
  m_IsExploded: 1
--- !u!1 &392050502
GameObject:
  m_ObjectHideFlags: 0
  m_PrefabParentObject: {fileID: 100000, guid: 7e42ae0beda7d4514b03929df5883f61, type: 2}
  m_PrefabInternal: {fileID: 1668077609}
  serializedVersion: 4
  m_Component:
  - 4: {fileID: 392050503}
  - 33: {fileID: 392050505}
  - 23: {fileID: 392050504}
  - 114: {fileID: 392050506}
  m_Layer: 0
  m_Name: 100x100
  m_TagString: Untagged
  m_Icon: {fileID: 0}
  m_NavMeshLayer: 0
  m_StaticEditorFlags: 0
  m_IsActive: 1
--- !u!4 &392050503
Transform:
  m_ObjectHideFlags: 0
  m_PrefabParentObject: {fileID: 400000, guid: 7e42ae0beda7d4514b03929df5883f61, type: 2}
  m_PrefabInternal: {fileID: 1668077609}
  m_GameObject: {fileID: 392050502}
  m_LocalRotation: {x: 0, y: 0, z: 0, w: 1}
  m_LocalPosition: {x: -50, y: 50, z: 0}
  m_LocalScale: {x: 100, y: 100, z: 1}
  m_Children: []
  m_Father: {fileID: 1065089102}
--- !u!23 &392050504
Renderer:
  m_ObjectHideFlags: 0
  m_PrefabParentObject: {fileID: 2300000, guid: 7e42ae0beda7d4514b03929df5883f61,
    type: 2}
  m_PrefabInternal: {fileID: 1668077609}
  m_GameObject: {fileID: 392050502}
  m_Enabled: 1
  m_CastShadows: 1
  m_ReceiveShadows: 1
  m_LightmapIndex: 255
  m_LightmapTilingOffset: {x: 1, y: 1, z: 0, w: 0}
  m_Materials:
  - {fileID: 2100000, guid: fd63cc375bb094274ad7c49ba1a5cda0, type: 2}
  m_SubsetIndices: 
  m_StaticBatchRoot: {fileID: 0}
  m_UseLightProbes: 0
  m_LightProbeAnchor: {fileID: 0}
  m_ScaleInLightmap: 1
--- !u!33 &392050505
MeshFilter:
  m_ObjectHideFlags: 0
  m_PrefabParentObject: {fileID: 3300000, guid: 7e42ae0beda7d4514b03929df5883f61,
    type: 2}
  m_PrefabInternal: {fileID: 1668077609}
  m_GameObject: {fileID: 392050502}
  m_Mesh: {fileID: 4300000, guid: de301355d204a41a8af4d4f6ddafa936, type: 3}
--- !u!114 &392050506
MonoBehaviour:
  m_ObjectHideFlags: 0
  m_PrefabParentObject: {fileID: 0}
  m_PrefabInternal: {fileID: 0}
  m_GameObject: {fileID: 392050502}
  m_Enabled: 1
  m_EditorHideFlags: 0
  m_Script: {fileID: 11500000, guid: 3a1826e38a65f44a2aa2527473b3aea1, type: 3}
  m_Name: 
  m_EditorClassIdentifier: 
  anchor: 4
  sizeFromScale: 1
  manualSize: {x: 0, y: 0, z: 0}
--- !u!1 &417118075
GameObject:
  m_ObjectHideFlags: 0
  m_PrefabParentObject: {fileID: 100000, guid: 7e42ae0beda7d4514b03929df5883f61, type: 2}
  m_PrefabInternal: {fileID: 2009451104}
  serializedVersion: 4
  m_Component:
  - 4: {fileID: 417118076}
  - 33: {fileID: 417118078}
  - 23: {fileID: 417118077}
  m_Layer: 0
  m_Name: 100x100
  m_TagString: Untagged
  m_Icon: {fileID: 0}
  m_NavMeshLayer: 0
  m_StaticEditorFlags: 0
  m_IsActive: 1
--- !u!4 &417118076
Transform:
  m_ObjectHideFlags: 0
  m_PrefabParentObject: {fileID: 400000, guid: 7e42ae0beda7d4514b03929df5883f61, type: 2}
  m_PrefabInternal: {fileID: 2009451104}
  m_GameObject: {fileID: 417118075}
  m_LocalRotation: {x: 0, y: 0, z: 0, w: 1}
  m_LocalPosition: {x: 0, y: 0, z: 0}
  m_LocalScale: {x: 100, y: 100, z: 1}
  m_Children: []
  m_Father: {fileID: 1065089102}
--- !u!23 &417118077
Renderer:
  m_ObjectHideFlags: 0
  m_PrefabParentObject: {fileID: 2300000, guid: 7e42ae0beda7d4514b03929df5883f61,
    type: 2}
  m_PrefabInternal: {fileID: 2009451104}
  m_GameObject: {fileID: 417118075}
  m_Enabled: 1
  m_CastShadows: 1
  m_ReceiveShadows: 1
  m_LightmapIndex: 255
  m_LightmapTilingOffset: {x: 1, y: 1, z: 0, w: 0}
  m_Materials:
  - {fileID: 2100000, guid: fd63cc375bb094274ad7c49ba1a5cda0, type: 2}
  m_SubsetIndices: 
  m_StaticBatchRoot: {fileID: 0}
  m_UseLightProbes: 0
  m_LightProbeAnchor: {fileID: 0}
  m_ScaleInLightmap: 1
--- !u!33 &417118078
MeshFilter:
  m_ObjectHideFlags: 0
  m_PrefabParentObject: {fileID: 3300000, guid: 7e42ae0beda7d4514b03929df5883f61,
    type: 2}
  m_PrefabInternal: {fileID: 2009451104}
  m_GameObject: {fileID: 417118075}
  m_Mesh: {fileID: 4300000, guid: de301355d204a41a8af4d4f6ddafa936, type: 3}
--- !u!1 &482632201
GameObject:
  m_ObjectHideFlags: 0
  m_PrefabParentObject: {fileID: 100000, guid: b0a31bbf7642b428e9fcae4f70909700, type: 2}
  m_PrefabInternal: {fileID: 1577279992}
  serializedVersion: 4
  m_Component:
  - 4: {fileID: 482632202}
  - 33: {fileID: 482632204}
  - 23: {fileID: 482632203}
  m_Layer: 0
  m_Name: 25x25
  m_TagString: Untagged
  m_Icon: {fileID: 0}
  m_NavMeshLayer: 0
  m_StaticEditorFlags: 0
  m_IsActive: 1
--- !u!4 &482632202
Transform:
  m_ObjectHideFlags: 0
  m_PrefabParentObject: {fileID: 400000, guid: b0a31bbf7642b428e9fcae4f70909700, type: 2}
  m_PrefabInternal: {fileID: 1577279992}
  m_GameObject: {fileID: 482632201}
  m_LocalRotation: {x: 0, y: 0, z: 0, w: 1}
  m_LocalPosition: {x: 150, y: 0, z: 0}
  m_LocalScale: {x: 25, y: 25, z: 1}
  m_Children: []
  m_Father: {fileID: 1065089102}
--- !u!23 &482632203
Renderer:
  m_ObjectHideFlags: 0
  m_PrefabParentObject: {fileID: 2300000, guid: b0a31bbf7642b428e9fcae4f70909700,
    type: 2}
  m_PrefabInternal: {fileID: 1577279992}
  m_GameObject: {fileID: 482632201}
  m_Enabled: 1
  m_CastShadows: 1
  m_ReceiveShadows: 1
  m_LightmapIndex: 255
  m_LightmapTilingOffset: {x: 1, y: 1, z: 0, w: 0}
  m_Materials:
  - {fileID: 2100000, guid: 75fe105d79af54199bed7bdd51748f9e, type: 2}
  m_SubsetIndices: 
  m_StaticBatchRoot: {fileID: 0}
  m_UseLightProbes: 0
  m_LightProbeAnchor: {fileID: 0}
  m_ScaleInLightmap: 1
--- !u!33 &482632204
MeshFilter:
  m_ObjectHideFlags: 0
  m_PrefabParentObject: {fileID: 3300000, guid: b0a31bbf7642b428e9fcae4f70909700,
    type: 2}
  m_PrefabInternal: {fileID: 1577279992}
  m_GameObject: {fileID: 482632201}
  m_Mesh: {fileID: 4300000, guid: de301355d204a41a8af4d4f6ddafa936, type: 3}
--- !u!1 &1065089101
GameObject:
  m_ObjectHideFlags: 0
  m_PrefabParentObject: {fileID: 0}
  m_PrefabInternal: {fileID: 0}
  serializedVersion: 4
  m_Component:
  - 4: {fileID: 1065089102}
  m_Layer: 0
  m_Name: Content
  m_TagString: Untagged
  m_Icon: {fileID: 0}
  m_NavMeshLayer: 0
  m_StaticEditorFlags: 0
  m_IsActive: 1
--- !u!4 &1065089102
Transform:
  m_ObjectHideFlags: 0
  m_PrefabParentObject: {fileID: 0}
  m_PrefabInternal: {fileID: 0}
  m_GameObject: {fileID: 1065089101}
  m_LocalRotation: {x: 0, y: 0, z: 0, w: 1}
  m_LocalPosition: {x: 0, y: 0, z: 1}
  m_LocalScale: {x: 1, y: 1, z: 1}
  m_Children:
  - {fileID: 482632202}
  - {fileID: 2013626791}
  - {fileID: 392050503}
  - {fileID: 417118076}
  - {fileID: 1634239479}
  m_Father: {fileID: 1528687349}
--- !u!1001 &1377275997
Prefab:
  m_ObjectHideFlags: 0
  serializedVersion: 2
  m_Modification:
    m_TransformParent: {fileID: 1065089102}
    m_Modifications:
    - target: {fileID: 400000, guid: 6f5fc11a2eb344187a30542f360a41ff, type: 2}
      propertyPath: m_LocalPosition.x
      value: 0
      objectReference: {fileID: 0}
    - target: {fileID: 400000, guid: 6f5fc11a2eb344187a30542f360a41ff, type: 2}
      propertyPath: m_LocalPosition.y
      value: 0
      objectReference: {fileID: 0}
    - target: {fileID: 400000, guid: 6f5fc11a2eb344187a30542f360a41ff, type: 2}
      propertyPath: m_LocalPosition.z
      value: 10
      objectReference: {fileID: 0}
    - target: {fileID: 400000, guid: 6f5fc11a2eb344187a30542f360a41ff, type: 2}
      propertyPath: m_LocalRotation.x
      value: 0
      objectReference: {fileID: 0}
    - target: {fileID: 400000, guid: 6f5fc11a2eb344187a30542f360a41ff, type: 2}
      propertyPath: m_LocalRotation.y
      value: 0
      objectReference: {fileID: 0}
    - target: {fileID: 400000, guid: 6f5fc11a2eb344187a30542f360a41ff, type: 2}
      propertyPath: m_LocalRotation.z
      value: 0
      objectReference: {fileID: 0}
    - target: {fileID: 400000, guid: 6f5fc11a2eb344187a30542f360a41ff, type: 2}
      propertyPath: m_LocalRotation.w
      value: 1
      objectReference: {fileID: 0}
    - target: {fileID: 400000, guid: 6f5fc11a2eb344187a30542f360a41ff, type: 2}
      propertyPath: m_LocalScale.x
      value: 0
      objectReference: {fileID: 0}
    - target: {fileID: 400000, guid: 6f5fc11a2eb344187a30542f360a41ff, type: 2}
      propertyPath: m_LocalScale.y
      value: 0
      objectReference: {fileID: 0}
    m_RemovedComponents: []
  m_ParentPrefab: {fileID: 100100000, guid: 6f5fc11a2eb344187a30542f360a41ff, type: 2}
  m_RootGameObject: {fileID: 1634239478}
  m_IsPrefabParent: 0
  m_IsExploded: 1
--- !u!1 &1528687348
GameObject:
  m_ObjectHideFlags: 0
  m_PrefabParentObject: {fileID: 0}
  m_PrefabInternal: {fileID: 0}
  serializedVersion: 4
  m_Component:
  - 4: {fileID: 1528687349}
  - 20: {fileID: 1528687350}
  - 92: {fileID: 1528687352}
  - 124: {fileID: 1528687353}
  - 81: {fileID: 1528687351}
  - 114: {fileID: 1528687354}
  m_Layer: 0
  m_Name: Main Camera
  m_TagString: MainCamera
  m_Icon: {fileID: 0}
  m_NavMeshLayer: 0
  m_StaticEditorFlags: 0
  m_IsActive: 1
--- !u!4 &1528687349
Transform:
  m_ObjectHideFlags: 0
  m_PrefabParentObject: {fileID: 0}
  m_PrefabInternal: {fileID: 0}
  m_GameObject: {fileID: 1528687348}
  m_LocalRotation: {x: 0, y: 0, z: 0, w: 1}
  m_LocalPosition: {x: 0, y: -0, z: -1}
  m_LocalScale: {x: 1, y: 1, z: 1}
  m_Children:
  - {fileID: 1065089102}
  m_Father: {fileID: 0}
--- !u!20 &1528687350
Camera:
  m_ObjectHideFlags: 0
  m_PrefabParentObject: {fileID: 0}
  m_PrefabInternal: {fileID: 0}
  m_GameObject: {fileID: 1528687348}
  m_Enabled: 1
  serializedVersion: 2
  m_ClearFlags: 1
  m_BackGroundColor: {r: .192156866, g: .301960796, b: .474509805, a: .0196078438}
  m_NormalizedViewPortRect:
    serializedVersion: 2
    x: 0
    y: 0
    width: 1
    height: 1
  near clip plane: 0
  far clip plane: 1000
  field of view: 60
  orthographic: 1
  orthographic size: 0
  m_Depth: 0
  m_CullingMask:
    serializedVersion: 2
    m_Bits: 4294967295
  m_RenderingPath: -1
  m_TargetTexture: {fileID: 0}
  m_HDR: 0
--- !u!81 &1528687351
AudioListener:
  m_ObjectHideFlags: 0
  m_PrefabParentObject: {fileID: 0}
  m_PrefabInternal: {fileID: 0}
  m_GameObject: {fileID: 1528687348}
  m_Enabled: 1
--- !u!92 &1528687352
Behaviour:
  m_ObjectHideFlags: 0
  m_PrefabParentObject: {fileID: 0}
  m_PrefabInternal: {fileID: 0}
  m_GameObject: {fileID: 1528687348}
  m_Enabled: 1
--- !u!124 &1528687353
Behaviour:
  m_ObjectHideFlags: 0
  m_PrefabParentObject: {fileID: 0}
  m_PrefabInternal: {fileID: 0}
  m_GameObject: {fileID: 1528687348}
  m_Enabled: 1
--- !u!114 &1528687354
MonoBehaviour:
  m_ObjectHideFlags: 0
  m_PrefabParentObject: {fileID: 0}
  m_PrefabInternal: {fileID: 0}
  m_GameObject: {fileID: 1528687348}
  m_Enabled: 1
  m_EditorHideFlags: 0
  m_Script: {fileID: 11500000, guid: ee6e520adfa12456ba24c3290f7b9721, type: 3}
  m_Name: 
  m_EditorClassIdentifier: 
  calculatePosition: 1
--- !u!1001 &1577279992
Prefab:
  m_ObjectHideFlags: 0
  serializedVersion: 2
  m_Modification:
    m_TransformParent: {fileID: 1065089102}
    m_Modifications:
    - target: {fileID: 400000, guid: b0a31bbf7642b428e9fcae4f70909700, type: 2}
      propertyPath: m_LocalPosition.x
      value: 150
      objectReference: {fileID: 0}
    - target: {fileID: 400000, guid: b0a31bbf7642b428e9fcae4f70909700, type: 2}
      propertyPath: m_LocalPosition.y
      value: 0
      objectReference: {fileID: 0}
    - target: {fileID: 400000, guid: b0a31bbf7642b428e9fcae4f70909700, type: 2}
      propertyPath: m_LocalPosition.z
      value: 0
      objectReference: {fileID: 0}
    - target: {fileID: 400000, guid: b0a31bbf7642b428e9fcae4f70909700, type: 2}
      propertyPath: m_LocalRotation.x
      value: 0
      objectReference: {fileID: 0}
    - target: {fileID: 400000, guid: b0a31bbf7642b428e9fcae4f70909700, type: 2}
      propertyPath: m_LocalRotation.y
      value: 0
      objectReference: {fileID: 0}
    - target: {fileID: 400000, guid: b0a31bbf7642b428e9fcae4f70909700, type: 2}
      propertyPath: m_LocalRotation.z
      value: 0
      objectReference: {fileID: 0}
    - target: {fileID: 400000, guid: b0a31bbf7642b428e9fcae4f70909700, type: 2}
      propertyPath: m_LocalRotation.w
      value: 1
      objectReference: {fileID: 0}
    m_RemovedComponents: []
  m_ParentPrefab: {fileID: 100100000, guid: b0a31bbf7642b428e9fcae4f70909700, type: 2}
  m_RootGameObject: {fileID: 482632201}
  m_IsPrefabParent: 0
  m_IsExploded: 1
--- !u!1 &1634239478
GameObject:
  m_ObjectHideFlags: 0
  m_PrefabParentObject: {fileID: 100000, guid: 6f5fc11a2eb344187a30542f360a41ff, type: 2}
  m_PrefabInternal: {fileID: 1377275997}
  serializedVersion: 4
  m_Component:
  - 4: {fileID: 1634239479}
  - 33: {fileID: 1634239481}
  - 23: {fileID: 1634239480}
  - 114: {fileID: 1634239482}
  m_Layer: 0
  m_Name: Background
  m_TagString: Untagged
  m_Icon: {fileID: 0}
  m_NavMeshLayer: 0
  m_StaticEditorFlags: 0
  m_IsActive: 1
--- !u!4 &1634239479
Transform:
  m_ObjectHideFlags: 0
  m_PrefabParentObject: {fileID: 400000, guid: 6f5fc11a2eb344187a30542f360a41ff, type: 2}
  m_PrefabInternal: {fileID: 1377275997}
  m_GameObject: {fileID: 1634239478}
  m_LocalRotation: {x: 0, y: 0, z: 0, w: 1}
  m_LocalPosition: {x: 0, y: 0, z: 10}
  m_LocalScale: {x: 0, y: 0, z: 1}
  m_Children: []
  m_Father: {fileID: 1065089102}
--- !u!23 &1634239480
Renderer:
  m_ObjectHideFlags: 0
  m_PrefabParentObject: {fileID: 2300000, guid: 6f5fc11a2eb344187a30542f360a41ff,
    type: 2}
  m_PrefabInternal: {fileID: 1377275997}
  m_GameObject: {fileID: 1634239478}
  m_Enabled: 1
  m_CastShadows: 1
  m_ReceiveShadows: 1
  m_LightmapIndex: 255
  m_LightmapTilingOffset: {x: 1, y: 1, z: 0, w: 0}
  m_Materials:
  - {fileID: 2100000, guid: b543fa4d2494848c88e9eaee82dd5072, type: 2}
  m_SubsetIndices: 
  m_StaticBatchRoot: {fileID: 0}
  m_UseLightProbes: 0
  m_LightProbeAnchor: {fileID: 0}
  m_ScaleInLightmap: 1
--- !u!33 &1634239481
MeshFilter:
  m_ObjectHideFlags: 0
  m_PrefabParentObject: {fileID: 3300000, guid: 6f5fc11a2eb344187a30542f360a41ff,
    type: 2}
  m_PrefabInternal: {fileID: 1377275997}
  m_GameObject: {fileID: 1634239478}
  m_Mesh: {fileID: 4300000, guid: de301355d204a41a8af4d4f6ddafa936, type: 3}
--- !u!114 &1634239482
MonoBehaviour:
  m_ObjectHideFlags: 0
  m_PrefabParentObject: {fileID: 0}
  m_PrefabInternal: {fileID: 0}
  m_GameObject: {fileID: 1634239478}
  m_Enabled: 1
  m_EditorHideFlags: 0
  m_Script: {fileID: 11500000, guid: a77a1d9a9df5d4d5bb1e8fed87d0602f, type: 3}
  m_Name: 
  m_EditorClassIdentifier: 
  stretchMethod: 0
--- !u!1001 &1668077609
Prefab:
  m_ObjectHideFlags: 0
  serializedVersion: 2
  m_Modification:
    m_TransformParent: {fileID: 1065089102}
    m_Modifications:
    - target: {fileID: 400000, guid: 7e42ae0beda7d4514b03929df5883f61, type: 2}
      propertyPath: m_LocalPosition.x
      value: -50
      objectReference: {fileID: 0}
    - target: {fileID: 400000, guid: 7e42ae0beda7d4514b03929df5883f61, type: 2}
      propertyPath: m_LocalPosition.y
      value: 50
      objectReference: {fileID: 0}
    - target: {fileID: 400000, guid: 7e42ae0beda7d4514b03929df5883f61, type: 2}
      propertyPath: m_LocalPosition.z
      value: 0
      objectReference: {fileID: 0}
    - target: {fileID: 400000, guid: 7e42ae0beda7d4514b03929df5883f61, type: 2}
      propertyPath: m_LocalRotation.x
      value: 0
      objectReference: {fileID: 0}
    - target: {fileID: 400000, guid: 7e42ae0beda7d4514b03929df5883f61, type: 2}
      propertyPath: m_LocalRotation.y
      value: 0
      objectReference: {fileID: 0}
    - target: {fileID: 400000, guid: 7e42ae0beda7d4514b03929df5883f61, type: 2}
      propertyPath: m_LocalRotation.z
      value: 0
      objectReference: {fileID: 0}
    - target: {fileID: 400000, guid: 7e42ae0beda7d4514b03929df5883f61, type: 2}
      propertyPath: m_LocalRotation.w
      value: 1
      objectReference: {fileID: 0}
    m_RemovedComponents: []
  m_ParentPrefab: {fileID: 100100000, guid: 7e42ae0beda7d4514b03929df5883f61, type: 2}
  m_RootGameObject: {fileID: 392050502}
  m_IsPrefabParent: 0
  m_IsExploded: 1
--- !u!1001 &2009451104
Prefab:
  m_ObjectHideFlags: 0
  serializedVersion: 2
  m_Modification:
    m_TransformParent: {fileID: 1065089102}
    m_Modifications:
    - target: {fileID: 400000, guid: 7e42ae0beda7d4514b03929df5883f61, type: 2}
      propertyPath: m_LocalPosition.x
      value: 0
      objectReference: {fileID: 0}
    - target: {fileID: 400000, guid: 7e42ae0beda7d4514b03929df5883f61, type: 2}
      propertyPath: m_LocalPosition.y
      value: 0
      objectReference: {fileID: 0}
    - target: {fileID: 400000, guid: 7e42ae0beda7d4514b03929df5883f61, type: 2}
      propertyPath: m_LocalPosition.z
      value: 0
      objectReference: {fileID: 0}
    - target: {fileID: 400000, guid: 7e42ae0beda7d4514b03929df5883f61, type: 2}
      propertyPath: m_LocalRotation.x
      value: 0
      objectReference: {fileID: 0}
    - target: {fileID: 400000, guid: 7e42ae0beda7d4514b03929df5883f61, type: 2}
      propertyPath: m_LocalRotation.y
      value: 0
      objectReference: {fileID: 0}
    - target: {fileID: 400000, guid: 7e42ae0beda7d4514b03929df5883f61, type: 2}
      propertyPath: m_LocalRotation.z
      value: 0
      objectReference: {fileID: 0}
    - target: {fileID: 400000, guid: 7e42ae0beda7d4514b03929df5883f61, type: 2}
      propertyPath: m_LocalRotation.w
      value: 1
      objectReference: {fileID: 0}
    m_RemovedComponents: []
  m_ParentPrefab: {fileID: 100100000, guid: 7e42ae0beda7d4514b03929df5883f61, type: 2}
  m_RootGameObject: {fileID: 417118075}
  m_IsPrefabParent: 0
  m_IsExploded: 1
--- !u!1 &2013626790
GameObject:
  m_ObjectHideFlags: 0
  m_PrefabParentObject: {fileID: 100000, guid: 850abc942d39046f7bde0fc89b970c15, type: 2}
  m_PrefabInternal: {fileID: 182440751}
  serializedVersion: 4
  m_Component:
  - 4: {fileID: 2013626791}
  - 33: {fileID: 2013626793}
  - 23: {fileID: 2013626792}
  m_Layer: 0
  m_Name: 50x50
  m_TagString: Untagged
  m_Icon: {fileID: 0}
  m_NavMeshLayer: 0
  m_StaticEditorFlags: 0
  m_IsActive: 1
--- !u!4 &2013626791
Transform:
  m_ObjectHideFlags: 0
  m_PrefabParentObject: {fileID: 400000, guid: 850abc942d39046f7bde0fc89b970c15, type: 2}
  m_PrefabInternal: {fileID: 182440751}
  m_GameObject: {fileID: 2013626790}
  m_LocalRotation: {x: 0, y: 0, z: 0, w: 1}
  m_LocalPosition: {x: 100, y: 0, z: 0}
  m_LocalScale: {x: 50, y: 50, z: 1}
  m_Children: []
  m_Father: {fileID: 1065089102}
--- !u!23 &2013626792
Renderer:
  m_ObjectHideFlags: 0
  m_PrefabParentObject: {fileID: 2300000, guid: 850abc942d39046f7bde0fc89b970c15,
    type: 2}
  m_PrefabInternal: {fileID: 182440751}
  m_GameObject: {fileID: 2013626790}
  m_Enabled: 1
  m_CastShadows: 1
  m_ReceiveShadows: 1
  m_LightmapIndex: 255
  m_LightmapTilingOffset: {x: 1, y: 1, z: 0, w: 0}
  m_Materials:
  - {fileID: 2100000, guid: bfa252a3b707b4cb19ac513d80ec7b30, type: 2}
  m_SubsetIndices: 
  m_StaticBatchRoot: {fileID: 0}
  m_UseLightProbes: 0
  m_LightProbeAnchor: {fileID: 0}
  m_ScaleInLightmap: 1
--- !u!33 &2013626793
MeshFilter:
  m_ObjectHideFlags: 0
  m_PrefabParentObject: {fileID: 3300000, guid: 850abc942d39046f7bde0fc89b970c15,
    type: 2}
  m_PrefabInternal: {fileID: 182440751}
  m_GameObject: {fileID: 2013626790}
  m_Mesh: {fileID: 4300000, guid: de301355d204a41a8af4d4f6ddafa936, type: 3}
